#
# There is insufficient memory for the Java Runtime Environment to continue.
# Native memory allocation (malloc) failed to allocate 131088 bytes for Chunk::new
# Possible reasons:
#   The system is out of physical RAM or swap space
#   The process is running with CompressedOops enabled, and the Java Heap may be blocking the growth of the native heap
# Possible solutions:
#   Reduce memory load on the system
#   Increase physical memory or swap space
#   Check if swap backing store is full
#   Decrease Java heap size (-Xmx/-Xms)
#   Decrease number of Java threads
#   Decrease Java thread stack sizes (-Xss)
#   Set larger code cache with -XX:ReservedCodeCacheSize=
#   JVM is running with Unscaled Compressed Oops mode in which the Java heap is
#     placed in the first 4GB address space. The Java Heap base address is the
#     maximum limit for the native heap growth. Please use -XX:HeapBaseMinAddress
#     to set the Java Heap base and to place the Java Heap above 4GB virtual address.
# This output file may be truncated or incomplete.
#
#  Out of Memory Error (allocation.cpp:389), pid=15136, tid=0x0000000000003970
#
# JRE version: OpenJDK Runtime Environment (8.0_212-b04) (build 1.8.0_212-release-1586-b04)
# Java VM: OpenJDK 64-Bit Server VM (25.212-b04 mixed mode windows-amd64 compressed oops)
# Failed to write core dump. Minidumps are not enabled by default on client versions of Windows
#

---------------  T H R E A D  ---------------

Current thread (0x0000000014f9c000):  JavaThread "C2 CompilerThread0" daemon [_thread_in_native, id=14704, stack(0x0000000016600000,0x0000000016700000)]

Stack: [0x0000000016600000,0x0000000016700000]
[error occurred during error reporting (printing stack bounds), id 0xc0000005]

Native frames: (J=compiled Java code, j=interpreted, Vv=VM code, C=native code)


Current CompileTask:
C2:  32738 5174       4       sun.reflect.generics.parser.SignatureParser::parseFieldTypeSignature (73 bytes)


---------------  P R O C E S S  ---------------

Java Threads: ( => current thread )
  0x000000001e1a4000 JavaThread "Cache worker for Build Output Cleanup Cache (D:\ELT\18new\orderbooking-android\.gradle\buildOutputCleanup)" [_thread_blocked, id=3428, stack(0x000000001fe60000,0x000000001ff60000)]
  0x000000001e19f800 JavaThread "File lock release action executor" [_thread_blocked, id=4704, stack(0x000000001f960000,0x000000001fa60000)]
  0x000000001e1a5800 JavaThread "Build operations Thread 4" [_thread_blocked, id=7264, stack(0x000000001f660000,0x000000001f760000)]
  0x000000001e1a2000 JavaThread "Build operations Thread 3" [_thread_blocked, id=7976, stack(0x000000001f560000,0x000000001f660000)]
  0x000000001e19d800 JavaThread "Build operations Thread 2" [_thread_blocked, id=12224, stack(0x000000001f460000,0x000000001f560000)]
  0x000000001e19e000 JavaThread "Build operations" [_thread_blocked, id=13540, stack(0x000000001ee00000,0x000000001ef00000)]
  0x000000001e1a1000 JavaThread "Cache worker for execution history cache (C:\Users\JBB\.gradle\caches\5.6.4\executionHistory)" [_thread_blocked, id=14960, stack(0x000000001f160000,0x000000001f260000)]
  0x0000000017ff6800 JavaThread "Cache worker for cache directory md-rule (C:\Users\JBB\.gradle\caches\5.6.4\md-rule)" [_thread_blocked, id=13196, stack(0x000000001ed00000,0x000000001ee00000)]
  0x0000000017ffb000 JavaThread "Cache worker for cache directory md-supplier (C:\Users\JBB\.gradle\caches\5.6.4\md-supplier)" [_thread_blocked, id=11416, stack(0x000000001e930000,0x000000001ea30000)]
  0x0000000017ff8000 JavaThread "Cache worker for file hash cache (D:\ELT\18new\orderbooking-android\.gradle\5.6.4\fileHashes)" [_thread_blocked, id=11732, stack(0x000000001cfc0000,0x000000001d0c0000)]
  0x0000000017ffc800 JavaThread "Cache worker for journal cache (C:\Users\JBB\.gradle\caches\journal-1)" [_thread_blocked, id=13920, stack(0x000000001ad20000,0x000000001ae20000)]
  0x0000000017ff7800 JavaThread "File lock request listener" [_thread_in_native, id=12160, stack(0x000000001ac20000,0x000000001ad20000)]
  0x0000000017aaf000 JavaThread "Cache worker for file hash cache (C:\Users\JBB\.gradle\caches\5.6.4\fileHashes)" [_thread_blocked, id=456, stack(0x000000001ab20000,0x000000001ac20000)]
  0x0000000016ba1000 JavaThread "Thread-9" [_thread_blocked, id=8432, stack(0x000000001a820000,0x000000001a920000)]
  0x00000000174a4800 JavaThread "Stdin handler" [_thread_blocked, id=13072, stack(0x000000001a720000,0x000000001a820000)]
  0x00000000174a1800 JavaThread "Asynchronous log dispatcher for DefaultDaemonConnection: socket connection from /127.0.0.1:62797 to /127.0.0.1:62798" [_thread_blocked, id=8200, stack(0x000000001a620000,0x000000001a720000)]
  0x00000000172e7000 JavaThread "Daemon worker" [_thread_in_vm, id=10496, stack(0x000000001a520000,0x000000001a620000)]
  0x00000000172e6000 JavaThread "Cancel handler" [_thread_blocked, id=3356, stack(0x000000001a420000,0x000000001a520000)]
  0x00000000172ce800 JavaThread "Handler for socket connection from /127.0.0.1:62797 to /127.0.0.1:62798" [_thread_in_native, id=12872, stack(0x000000001a120000,0x000000001a220000)]
  0x0000000017e51000 JavaThread "Daemon" [_thread_blocked, id=6424, stack(0x000000001a020000,0x000000001a120000)]
  0x00000000176c6800 JavaThread "Daemon periodic checks" [_thread_blocked, id=13708, stack(0x0000000019f20000,0x000000001a020000)]
  0x0000000017590800 JavaThread "Incoming local TCP Connector on port 62797" [_thread_in_native, id=9224, stack(0x0000000019ce0000,0x0000000019de0000)]
  0x0000000018865000 JavaThread "Daemon health stats" [_thread_blocked, id=14392, stack(0x00000000196a0000,0x00000000197a0000)]
  0x0000000016928800 JavaThread "Service Thread" daemon [_thread_blocked, id=6200, stack(0x0000000016d00000,0x0000000016e00000)]
  0x0000000014fa8000 JavaThread "C1 CompilerThread2" daemon [_thread_blocked, id=9832, stack(0x0000000016800000,0x0000000016900000)]
  0x0000000014fa0000 JavaThread "C2 CompilerThread1" daemon [_thread_in_native, id=10020, stack(0x0000000016700000,0x0000000016800000)]
=>0x0000000014f9c000 JavaThread "C2 CompilerThread0" daemon [_thread_in_native, id=14704, stack(0x0000000016600000,0x0000000016700000)]
  0x0000000014fa5800 JavaThread "Attach Listener" daemon [_thread_blocked, id=9676, stack(0x0000000016500000,0x0000000016600000)]
  0x0000000014fa4800 JavaThread "Signal Dispatcher" daemon [_thread_blocked, id=14636, stack(0x0000000016400000,0x0000000016500000)]
  0x00000000028cb000 JavaThread "Finalizer" daemon [_thread_blocked, id=14016, stack(0x0000000016200000,0x0000000016300000)]
  0x0000000014f89000 JavaThread "Reference Handler" daemon [_thread_blocked, id=11492, stack(0x0000000016100000,0x0000000016200000)]
  0x000000000254d800 JavaThread "main" [_thread_blocked, id=12996, stack(0x00000000026d0000,0x00000000027d0000)]

Other Threads:
  0x0000000014f67800 VMThread [stack: 0x0000000016000000,0x0000000016100000] [id=10752]
  0x0000000016929000 WatcherThread [stack: 0x0000000016e00000,0x0000000016f00000] [id=8152]

VM state:not at safepoint (normal execution)

VM Mutex/Monitor currently owned by a thread: None

heap address: 0x00000000c0000000, size: 1024 MB, Compressed Oops mode: 32-bit
Narrow klass base: 0x0000000000000000, Narrow klass shift: 3
Compressed class space size: 1073741824 Address: 0x0000000100000000

Heap:
 PSYoungGen      total 169984K, used 27162K [0x00000000eab00000, 0x00000000f8000000, 0x0000000100000000)
  eden space 154624K, 7% used [0x00000000eab00000,0x00000000eb689658,0x00000000f4200000)
  from space 15360K, 99% used [0x00000000f4200000,0x00000000f50fd568,0x00000000f5100000)
  to   space 19456K, 0% used [0x00000000f6d00000,0x00000000f6d00000,0x00000000f8000000)
 ParOldGen       total 56320K, used 27011K [0x00000000c0000000, 0x00000000c3700000, 0x00000000eab00000)
  object space 56320K, 47% used [0x00000000c0000000,0x00000000c1a60d38,0x00000000c3700000)
 Metaspace       used 53253K, capacity 54980K, committed 55168K, reserved 1097728K
  class space    used 7280K, capacity 7710K, committed 7808K, reserved 1048576K

Card table byte_map: [0x0000000011c90000,0x0000000011ea0000] byte_map_base: 0x0000000011690000

Marking Bits: (ParMarkBitMap*) 0x0000000067009f30
 Begin Bits: [0x0000000012400000, 0x0000000013400000)
 End Bits:   [0x0000000013400000, 0x0000000014400000)

Polling page: 0x00000000005b0000

CodeCache: size=245760Kb used=17450Kb max_used=17450Kb free=228310Kb
 bounds [0x00000000028d0000, 0x0000000003a10000, 0x00000000118d0000]
 total_blobs=5511 nmethods=4740 adapters=684
 compilation: enabled

Compilation events (10 events):
Event: 32.649 Thread 0x0000000014fa8000 5175       1       groovy.lang.MetaClassImpl::isInitialized (5 bytes)
Event: 32.649 Thread 0x0000000014fa8000 nmethod 5175 0x0000000002e71950 code [0x0000000002e71aa0, 0x0000000002e71bb0]
Event: 32.656 Thread 0x0000000014fa8000 5176       3       sun.reflect.generics.tree.FormalTypeParameter::accept (8 bytes)
Event: 32.657 Thread 0x0000000014fa8000 nmethod 5176 0x0000000002c54550 code [0x0000000002c546e0, 0x0000000002c54a28]
Event: 32.657 Thread 0x0000000014fa8000 5177       3       sun.reflect.generics.visitor.Reifier::visitFormalTypeParameter (22 bytes)
Event: 32.657 Thread 0x0000000014fa8000 nmethod 5177 0x0000000002a93f10 code [0x0000000002a94080, 0x0000000002a94328]
Event: 32.657 Thread 0x0000000014fa8000 5178       3       sun.reflect.generics.factory.CoreReflectionFactory::makeTypeVariable (11 bytes)
Event: 32.657 Thread 0x0000000014fa8000 nmethod 5178 0x0000000002b5bf90 code [0x0000000002b5c100, 0x0000000002b5c2a8]
Event: 32.711 Thread 0x0000000014fa8000 5179       3       java.util.TimSort::countRunAndMakeAscending (128 bytes)
Event: 32.712 Thread 0x0000000014fa8000 nmethod 5179 0x0000000002c52f10 code [0x0000000002c53100, 0x0000000002c53ba8]

GC Heap History (10 events):
Event: 17.122 GC heap before
{Heap before GC invocations=9 (full 1):
 PSYoungGen      total 76800K, used 73406K [0x00000000eab00000, 0x00000000f2e00000, 0x0000000100000000)
  eden space 65536K, 100% used [0x00000000eab00000,0x00000000eeb00000,0x00000000eeb00000)
  from space 11264K, 69% used [0x00000000eeb00000,0x00000000ef2afa08,0x00000000ef600000)
  to   space 11264K, 0% used [0x00000000f2300000,0x00000000f2300000,0x00000000f2e00000)
 ParOldGen       total 56320K, used 9502K [0x00000000c0000000, 0x00000000c3700000, 0x00000000eab00000)
  object space 56320K, 16% used [0x00000000c0000000,0x00000000c0947ae8,0x00000000c3700000)
 Metaspace       used 31651K, capacity 32194K, committed 32512K, reserved 1077248K
  class space    used 4341K, capacity 4532K, committed 4608K, reserved 1048576K
Event: 17.151 GC heap after
Heap after GC invocations=9 (full 1):
 PSYoungGen      total 120832K, used 7958K [0x00000000eab00000, 0x00000000f2d00000, 0x0000000100000000)
  eden space 110592K, 0% used [0x00000000eab00000,0x00000000eab00000,0x00000000f1700000)
  from space 10240K, 77% used [0x00000000f2300000,0x00000000f2ac5b28,0x00000000f2d00000)
  to   space 11264K, 0% used [0x00000000f1700000,0x00000000f1700000,0x00000000f2200000)
 ParOldGen       total 56320K, used 9510K [0x00000000c0000000, 0x00000000c3700000, 0x00000000eab00000)
  object space 56320K, 16% used [0x00000000c0000000,0x00000000c0949ae8,0x00000000c3700000)
 Metaspace       used 31651K, capacity 32194K, committed 32512K, reserved 1077248K
  class space    used 4341K, capacity 4532K, committed 4608K, reserved 1048576K
}
Event: 19.256 GC heap before
{Heap before GC invocations=10 (full 1):
 PSYoungGen      total 120832K, used 73821K [0x00000000eab00000, 0x00000000f2d00000, 0x0000000100000000)
  eden space 110592K, 59% used [0x00000000eab00000,0x00000000eeb51a30,0x00000000f1700000)
  from space 10240K, 77% used [0x00000000f2300000,0x00000000f2ac5b28,0x00000000f2d00000)
  to   space 11264K, 0% used [0x00000000f1700000,0x00000000f1700000,0x00000000f2200000)
 ParOldGen       total 56320K, used 9510K [0x00000000c0000000, 0x00000000c3700000, 0x00000000eab00000)
  object space 56320K, 16% used [0x00000000c0000000,0x00000000c0949ae8,0x00000000c3700000)
 Metaspace       used 34594K, capacity 35390K, committed 35456K, reserved 1079296K
  class space    used 4748K, capacity 4964K, committed 4992K, reserved 1048576K
Event: 19.310 GC heap after
Heap after GC invocations=10 (full 1):
 PSYoungGen      total 121856K, used 11237K [0x00000000eab00000, 0x00000000f6000000, 0x0000000100000000)
  eden space 110592K, 0% used [0x00000000eab00000,0x00000000eab00000,0x00000000f1700000)
  from space 11264K, 99% used [0x00000000f1700000,0x00000000f21f97b8,0x00000000f2200000)
  to   space 13312K, 0% used [0x00000000f5300000,0x00000000f5300000,0x00000000f6000000)
 ParOldGen       total 56320K, used 11025K [0x00000000c0000000, 0x00000000c3700000, 0x00000000eab00000)
  object space 56320K, 19% used [0x00000000c0000000,0x00000000c0ac45c0,0x00000000c3700000)
 Metaspace       used 34594K, capacity 35390K, committed 35456K, reserved 1079296K
  class space    used 4748K, capacity 4964K, committed 4992K, reserved 1048576K
}
Event: 19.310 GC heap before
{Heap before GC invocations=11 (full 2):
 PSYoungGen      total 121856K, used 11237K [0x00000000eab00000, 0x00000000f6000000, 0x0000000100000000)
  eden space 110592K, 0% used [0x00000000eab00000,0x00000000eab00000,0x00000000f1700000)
  from space 11264K, 99% used [0x00000000f1700000,0x00000000f21f97b8,0x00000000f2200000)
  to   space 13312K, 0% used [0x00000000f5300000,0x00000000f5300000,0x00000000f6000000)
 ParOldGen       total 56320K, used 11025K [0x00000000c0000000, 0x00000000c3700000, 0x00000000eab00000)
  object space 56320K, 19% used [0x00000000c0000000,0x00000000c0ac45c0,0x00000000c3700000)
 Metaspace       used 34594K, capacity 35390K, committed 35456K, reserved 1079296K
  class space    used 4748K, capacity 4964K, committed 4992K, reserved 1048576K
Event: 19.497 GC heap after
Heap after GC invocations=11 (full 2):
 PSYoungGen      total 121856K, used 0K [0x00000000eab00000, 0x00000000f6000000, 0x0000000100000000)
  eden space 110592K, 0% used [0x00000000eab00000,0x00000000eab00000,0x00000000f1700000)
  from space 11264K, 0% used [0x00000000f1700000,0x00000000f1700000,0x00000000f2200000)
  to   space 13312K, 0% used [0x00000000f5300000,0x00000000f5300000,0x00000000f6000000)
 ParOldGen       total 56320K, used 19544K [0x00000000c0000000, 0x00000000c3700000, 0x00000000eab00000)
  object space 56320K, 34% used [0x00000000c0000000,0x00000000c13161a8,0x00000000c3700000)
 Metaspace       used 34592K, capacity 35384K, committed 35456K, reserved 1079296K
  class space    used 4747K, capacity 4963K, committed 4992K, reserved 1048576K
}
Event: 25.225 GC heap before
{Heap before GC invocations=12 (full 2):
 PSYoungGen      total 121856K, used 110592K [0x00000000eab00000, 0x00000000f6000000, 0x0000000100000000)
  eden space 110592K, 100% used [0x00000000eab00000,0x00000000f1700000,0x00000000f1700000)
  from space 11264K, 0% used [0x00000000f1700000,0x00000000f1700000,0x00000000f2200000)
  to   space 13312K, 0% used [0x00000000f5300000,0x00000000f5300000,0x00000000f6000000)
 ParOldGen       total 56320K, used 19544K [0x00000000c0000000, 0x00000000c3700000, 0x00000000eab00000)
  object space 56320K, 34% used [0x00000000c0000000,0x00000000c13161a8,0x00000000c3700000)
 Metaspace       used 45409K, capacity 46410K, committed 46720K, reserved 1089536K
  class space    used 6103K, capacity 6405K, committed 6528K, reserved 1048576K
Event: 25.249 GC heap after
Heap after GC invocations=12 (full 2):
 PSYoungGen      total 155136K, used 13280K [0x00000000eab00000, 0x00000000f6000000, 0x0000000100000000)
  eden space 141824K, 0% used [0x00000000eab00000,0x00000000eab00000,0x00000000f3580000)
  from space 13312K, 99% used [0x00000000f5300000,0x00000000f5ff8060,0x00000000f6000000)
  to   space 15360K, 0% used [0x00000000f4200000,0x00000000f4200000,0x00000000f5100000)
 ParOldGen       total 56320K, used 20383K [0x00000000c0000000, 0x00000000c3700000, 0x00000000eab00000)
  object space 56320K, 36% used [0x00000000c0000000,0x00000000c13e7df0,0x00000000c3700000)
 Metaspace       used 45409K, capacity 46410K, committed 46720K, reserved 1089536K
  class space    used 6103K, capacity 6405K, committed 6528K, reserved 1048576K
}
Event: 32.516 GC heap before
{Heap before GC invocations=13 (full 2):
 PSYoungGen      total 155136K, used 155104K [0x00000000eab00000, 0x00000000f6000000, 0x0000000100000000)
  eden space 141824K, 100% used [0x00000000eab00000,0x00000000f3580000,0x00000000f3580000)
  from space 13312K, 99% used [0x00000000f5300000,0x00000000f5ff8060,0x00000000f6000000)
  to   space 15360K, 0% used [0x00000000f4200000,0x00000000f4200000,0x00000000f5100000)
 ParOldGen       total 56320K, used 20383K [0x00000000c0000000, 0x00000000c3700000, 0x00000000eab00000)
  object space 56320K, 36% used [0x00000000c0000000,0x00000000c13e7df0,0x00000000c3700000)
 Metaspace       used 53159K, capacity 54892K, committed 55168K, reserved 1097728K
  class space    used 7263K, capacity 7702K, committed 7808K, reserved 1048576K
Event: 32.568 GC heap after
Heap after GC invocations=13 (full 2):
 PSYoungGen      total 169984K, used 15349K [0x00000000eab00000, 0x00000000f8000000, 0x0000000100000000)
  eden space 154624K, 0% used [0x00000000eab00000,0x00000000eab00000,0x00000000f4200000)
  from space 15360K, 99% used [0x00000000f4200000,0x00000000f50fd568,0x00000000f5100000)
  to   space 19456K, 0% used [0x00000000f6d00000,0x00000000f6d00000,0x00000000f8000000)
 ParOldGen       total 56320K, used 27011K [0x00000000c0000000, 0x00000000c3700000, 0x00000000eab00000)
  object space 56320K, 47% used [0x00000000c0000000,0x00000000c1a60d38,0x00000000c3700000)
 Metaspace       used 53159K, capacity 54892K, committed 55168K, reserved 1097728K
  class space    used 7263K, capacity 7702K, committed 7808K, reserved 1048576K
}

Deoptimization events (10 events):
Event: 27.161 Thread 0x00000000172e7000 Uncommon trap: reason=unstable_if action=reinterpret pc=0x0000000002a7cf14 method=java.lang.String.replace(CC)Ljava/lang/String; @ 2
Event: 27.166 Thread 0x00000000172e7000 Uncommon trap: reason=unstable_if action=reinterpret pc=0x0000000003699824 method=groovy.lang.MetaClassImpl.checkIfStdMethod(Lgroovy/lang/MetaMethod;)V @ 55
Event: 27.167 Thread 0x00000000172e7000 Uncommon trap: reason=unstable_if action=reinterpret pc=0x00000000036edbe0 method=org.codehaus.groovy.runtime.metaclass.MetaMethodIndex.copyNonPrivateNonNewMetaMethods(Lorg/codehaus/groovy/runtime/metaclass/MetaMethodIndex$Entry;Lorg/codehaus/groovy/runti
Event: 27.258 Thread 0x00000000172e7000 Uncommon trap: reason=bimorphic action=maybe_recompile pc=0x0000000003056de0 method=java.util.AbstractCollection.addAll(Ljava/util/Collection;)Z @ 29
Event: 27.708 Thread 0x00000000172e7000 Uncommon trap: reason=unstable_if action=reinterpret pc=0x000000000370bc6c method=groovy.lang.MetaClassImpl.checkIfStdMethod(Lgroovy/lang/MetaMethod;)V @ 78
Event: 27.940 Thread 0x00000000172e7000 Uncommon trap: reason=bimorphic action=maybe_recompile pc=0x0000000003726a78 method=groovy.lang.MetaClassImpl.filterPropertyMethod(Ljava/lang/Object;ZZ)Ljava/lang/Object; @ 165
Event: 31.467 Thread 0x00000000172e7000 Uncommon trap: reason=unstable_if action=reinterpret pc=0x0000000002babcf4 method=java.util.HashMap.resize()[Ljava/util/HashMap$Node; @ 206
Event: 31.467 Thread 0x00000000172e7000 Uncommon trap: reason=unstable_if action=reinterpret pc=0x00000000034a7cc4 method=java.util.HashMap.putVal(ILjava/lang/Object;Ljava/lang/Object;ZZ)Ljava/lang/Object; @ 109
Event: 31.468 Thread 0x00000000172e7000 Uncommon trap: reason=unstable_if action=reinterpret pc=0x00000000031740c0 method=java.util.HashMap.putVal(ILjava/lang/Object;Ljava/lang/Object;ZZ)Ljava/lang/Object; @ 109
Event: 31.777 Thread 0x00000000172e7000 Uncommon trap: reason=predicate action=maybe_recompile pc=0x00000000039a6e7c method=java.util.AbstractCollection.toArray([Ljava/lang/Object;)[Ljava/lang/Object; @ 49

Classes redefined (0 events):
No events

Internal exceptions (10 events):
Event: 32.667 Thread 0x00000000172e7000 Exception <a 'java/lang/ClassNotFoundException': com/android/build/api/artifact/ArtifactTypeBeanInfo> (0x00000000eb2061f8) thrown at [D:\src\AOSP-openjdk-cygwin\jdk8u\hotspot\src\share\vm\classfile\systemDictionary.cpp, line 210]
Event: 32.668 Thread 0x00000000172e7000 Exception <a 'java/lang/ClassNotFoundException': com/android/build/api/artifact/ArtifactTypeCustomizer> (0x00000000eb2221e8) thrown at [D:\src\AOSP-openjdk-cygwin\jdk8u\hotspot\src\share\vm\classfile\systemDictionary.cpp, line 210]
Event: 32.669 Thread 0x00000000172e7000 Exception <a 'java/lang/ClassNotFoundException': com/android/build/gradle/internal/scope/InternalArtifactTypeCustomizer> (0x00000000eb2493f0) thrown at [D:\src\AOSP-openjdk-cygwin\jdk8u\hotspot\src\share\vm\classfile\systemDictionary.cpp, line 210]
Event: 32.670 Thread 0x00000000172e7000 Exception <a 'java/lang/ClassNotFoundException': com/android/build/gradle/internal/scope/InternalArtifactType$STRIPPED_NATIVE_LIBSCustomizer> (0x00000000eb2774c8) thrown at [D:\src\AOSP-openjdk-cygwin\jdk8u\hotspot\src\share\vm\classfile\systemDictionary.
Event: 32.673 Thread 0x00000000172e7000 Exception <a 'java/lang/ClassNotFoundException': org/codehaus/groovy/runtime/HandleMetaClassBeanInfo> (0x00000000eb2ca308) thrown at [D:\src\AOSP-openjdk-cygwin\jdk8u\hotspot\src\share\vm\classfile\systemDictionary.cpp, line 210]
Event: 32.674 Thread 0x00000000172e7000 Exception <a 'java/lang/ClassNotFoundException': groovy/lang/DelegatingMetaClassBeanInfo> (0x00000000eb2e1378) thrown at [D:\src\AOSP-openjdk-cygwin\jdk8u\hotspot\src\share\vm\classfile\systemDictionary.cpp, line 210]
Event: 32.710 Thread 0x00000000172e7000 Exception <a 'java/lang/ClassNotFoundException': groovy/lang/DelegatingMetaClassCustomizer> (0x00000000eb2f8988) thrown at [D:\src\AOSP-openjdk-cygwin\jdk8u\hotspot\src\share\vm\classfile\systemDictionary.cpp, line 210]
Event: 32.711 Thread 0x00000000172e7000 Exception <a 'java/lang/ClassNotFoundException': org/codehaus/groovy/runtime/HandleMetaClassCustomizer> (0x00000000eb335a38) thrown at [D:\src\AOSP-openjdk-cygwin\jdk8u\hotspot\src\share\vm\classfile\systemDictionary.cpp, line 210]
Event: 32.721 Thread 0x00000000172e7000 Exception <a 'java/lang/ClassNotFoundException': java/util/Collections$SingletonListBeanInfo> (0x00000000eb43d1e0) thrown at [D:\src\AOSP-openjdk-cygwin\jdk8u\hotspot\src\share\vm\classfile\systemDictionary.cpp, line 210]
Event: 32.722 Thread 0x00000000172e7000 Exception <a 'java/lang/ClassNotFoundException': java/util/Collections$SingletonListCustomizer> (0x00000000eb44a308) thrown at [D:\src\AOSP-openjdk-cygwin\jdk8u\hotspot\src\share\vm\classfile\systemDictionary.cpp, line 210]

Events (10 events):
Event: 32.721 loading class java/util/Collections$SingletonListCustomizer
Event: 32.721 loading class java/util/Collections$SingletonListCustomizer done
Event: 32.722 loading class java/util/Collections$SingletonListCustomizer
Event: 32.722 loading class java/util/Collections$SingletonListCustomizer done
Event: 32.723 loading class java/util/Collections$AsLIFOQueue
Event: 32.724 loading class java/util/Collections$AsLIFOQueue done
Event: 32.724 loading class java/util/Collections$ReverseComparator
Event: 32.725 loading class java/util/Collections$ReverseComparator done
Event: 32.725 loading class java/util/Collections$CopiesList
Event: 32.726 loading class java/util/Collections$CopiesList done


Dynamic libraries:
0x00007ff6a3190000 - 0x00007ff6a31c1000 	C:\Program Files\Android\Android Studio\jre\bin\java.exe
0x00007ffddef80000 - 0x00007ffddf170000 	C:\WINDOWS\SYSTEM32\ntdll.dll
0x00007ffddd150000 - 0x00007ffddd202000 	C:\WINDOWS\System32\KERNEL32.DLL
0x00007ffddc910000 - 0x00007ffddcbb3000 	C:\WINDOWS\System32\KERNELBASE.dll
0x00007ffdde410000 - 0x00007ffdde4b3000 	C:\WINDOWS\System32\ADVAPI32.dll
0x00007ffdde8b0000 - 0x00007ffdde94e000 	C:\WINDOWS\System32\msvcrt.dll
0x00007ffddec20000 - 0x00007ffddecb7000 	C:\WINDOWS\System32\sechost.dll
0x00007ffddd030000 - 0x00007ffddd150000 	C:\WINDOWS\System32\RPCRT4.dll
0x00007ffdddaa0000 - 0x00007ffdddc34000 	C:\WINDOWS\System32\USER32.dll
0x00007ffddc100000 - 0x00007ffddc121000 	C:\WINDOWS\System32\win32u.dll
0x00007ffddeeb0000 - 0x00007ffddeed6000 	C:\WINDOWS\System32\GDI32.dll
0x00007ffddcd90000 - 0x00007ffddcf24000 	C:\WINDOWS\System32\gdi32full.dll
0x00007ffddbfe0000 - 0x00007ffddc07e000 	C:\WINDOWS\System32\msvcp_win.dll
0x00007ffddcf30000 - 0x00007ffddd02a000 	C:\WINDOWS\System32\ucrtbase.dll
0x00007ffddb320000 - 0x00007ffddb5a5000 	C:\WINDOWS\WinSxS\amd64_microsoft.windows.common-controls_6595b64144ccf1df_6.0.18362.778_none_e6c6b761130d4fb8\COMCTL32.dll
0x00007ffddd240000 - 0x00007ffddd576000 	C:\WINDOWS\System32\combase.dll
0x00007ffddc080000 - 0x00007ffddc100000 	C:\WINDOWS\System32\bcryptPrimitives.dll
0x00007ffddd210000 - 0x00007ffddd23e000 	C:\WINDOWS\System32\IMM32.DLL
0x0000000066680000 - 0x0000000066752000 	C:\Program Files\Android\Android Studio\jre\jre\bin\msvcr100.dll
0x0000000066840000 - 0x0000000067086000 	C:\Program Files\Android\Android Studio\jre\jre\bin\server\jvm.dll
0x00007ffdde590000 - 0x00007ffdde598000 	C:\WINDOWS\System32\PSAPI.DLL
0x00007ffdd9170000 - 0x00007ffdd9194000 	C:\WINDOWS\SYSTEM32\WINMM.dll
0x00007ffddb7a0000 - 0x00007ffddb7a9000 	C:\WINDOWS\SYSTEM32\WSOCK32.dll
0x00007ffdd04b0000 - 0x00007ffdd04ba000 	C:\WINDOWS\SYSTEM32\VERSION.dll
0x00007ffdd9140000 - 0x00007ffdd916d000 	C:\WINDOWS\SYSTEM32\WINMMBASE.dll
0x00007ffddcd10000 - 0x00007ffddcd5a000 	C:\WINDOWS\System32\cfgmgr32.dll
0x00007ffdde3a0000 - 0x00007ffdde40f000 	C:\WINDOWS\System32\WS2_32.dll
0x00007ffdda2b0000 - 0x00007ffdda2bf000 	C:\Program Files\Android\Android Studio\jre\jre\bin\verify.dll
0x00007ffdda280000 - 0x00007ffdda2a9000 	C:\Program Files\Android\Android Studio\jre\jre\bin\java.dll
0x00007ffdda260000 - 0x00007ffdda276000 	C:\Program Files\Android\Android Studio\jre\jre\bin\zip.dll
0x00007ffdddc40000 - 0x00007ffdde325000 	C:\WINDOWS\System32\SHELL32.dll
0x00007ffddeb10000 - 0x00007ffddebb9000 	C:\WINDOWS\System32\shcore.dll
0x00007ffddc130000 - 0x00007ffddc8b0000 	C:\WINDOWS\System32\windows.storage.dll
0x00007ffddbe50000 - 0x00007ffddbe73000 	C:\WINDOWS\System32\profapi.dll
0x00007ffddbec0000 - 0x00007ffddbf0a000 	C:\WINDOWS\System32\powrprof.dll
0x00007ffddbe40000 - 0x00007ffddbe50000 	C:\WINDOWS\System32\UMPDC.dll
0x00007ffdde6f0000 - 0x00007ffdde742000 	C:\WINDOWS\System32\shlwapi.dll
0x00007ffddbea0000 - 0x00007ffddbeb1000 	C:\WINDOWS\System32\kernel.appcore.dll
0x00007ffddbfc0000 - 0x00007ffddbfd7000 	C:\WINDOWS\System32\cryptsp.dll
0x00007ffdda0d0000 - 0x00007ffdda0ea000 	C:\Program Files\Android\Android Studio\jre\jre\bin\net.dll
0x00007ffdce060000 - 0x00007ffdce235000 	C:\WINDOWS\SYSTEM32\urlmon.dll
0x00007ffdce520000 - 0x00007ffdce7c6000 	C:\WINDOWS\SYSTEM32\iertutil.dll
0x00007ffddb200000 - 0x00007ffddb20c000 	C:\WINDOWS\SYSTEM32\CRYPTBASE.DLL
0x00007ffddb030000 - 0x00007ffddb097000 	C:\WINDOWS\system32\mswsock.dll
0x00007ffdda0b0000 - 0x00007ffdda0c3000 	C:\Program Files\Android\Android Studio\jre\jre\bin\nio.dll
0x00007ffdda050000 - 0x00007ffdda076000 	C:\Users\JBB\.gradle\native\30\windows-amd64\native-platform.dll
0x00007ffdda1d0000 - 0x00007ffdda1dd000 	C:\Program Files\Android\Android Studio\jre\jre\bin\management.dll
0x00007ffddaba0000 - 0x00007ffddabd3000 	C:\WINDOWS\system32\rsaenh.dll
0x00007ffddcd60000 - 0x00007ffddcd86000 	C:\WINDOWS\System32\bcrypt.dll
0x00007ffddbd60000 - 0x00007ffddbd85000 	C:\WINDOWS\SYSTEM32\USERENV.dll
0x00007ffddad40000 - 0x00007ffddad7a000 	C:\WINDOWS\SYSTEM32\IPHLPAPI.DLL
0x00007ffddeea0000 - 0x00007ffddeea8000 	C:\WINDOWS\System32\NSI.dll
0x00007ffdd2820000 - 0x00007ffdd2836000 	C:\WINDOWS\SYSTEM32\dhcpcsvc6.DLL
0x00007ffdd2af0000 - 0x00007ffdd2b0c000 	C:\WINDOWS\SYSTEM32\dhcpcsvc.DLL
0x00007ffddad80000 - 0x00007ffddae4a000 	C:\WINDOWS\SYSTEM32\DNSAPI.dll

VM Arguments:
jvm_args: -Xmx1024m -Dfile.encoding=windows-1252 -Duser.country=US -Duser.language=en -Duser.variant 
java_command: org.gradle.launcher.daemon.bootstrap.GradleDaemon 5.6.4
java_class_path (initial): C:\Users\JBB\.gradle\wrapper\dists\gradle-5.6.4-all\ankdp27end7byghfw1q2sw75f\gradle-5.6.4\lib\gradle-launcher-5.6.4.jar
Launcher Type: SUN_STANDARD

Environment Variables:
PATH=C:\WINDOWS\system32;C:\WINDOWS;C:\WINDOWS\System32\Wbem;C:\WINDOWS\System32\WindowsPowerShell\v1.0\;C:\WINDOWS\System32\OpenSSH\;C:\Program Files\nodejs\;C:\Program Files\Git\cmd;C:\Users\JBB\AppData\Local\Microsoft\WindowsApps;C:\Users\JBB\AppData\Roaming\npm;
USERNAME=JBB
OS=Windows_NT
PROCESSOR_IDENTIFIER=Intel64 Family 6 Model 69 Stepping 1, GenuineIntel



---------------  S Y S T E M  ---------------

OS: Windows 10.0 , 64 bit Build 18362 (10.0.18362.778)

CPU:total 4 (initial active 4) (2 cores per cpu, 2 threads per core) family 6 model 69 stepping 1, cmov, cx8, fxsr, mmx, sse, sse2, sse3, ssse3, sse4.1, sse4.2, popcnt, avx, avx2, aes, clmul, erms, lzcnt, ht, tsc, tscinvbit, bmi1, bmi2

Memory: 4k page, physical 8291932k(337792k free), swap 15265240k(588k free)

vm_info: OpenJDK 64-Bit Server VM (25.212-b04) for windows-amd64 JRE (1.8.0_212-release-1586-b04), built by "builder" with MS VC++ 10.0 (VS2010)

time: Tue May 05 15:37:49 2020
timezone: India Standard Time
elapsed time: 32 seconds (0d 0h 0m 32s)

